

Code Coverage Report:    
  2021-02-18 15:10:01    
                         
 Summary:                
  Classes: 66.67% (2/3)  
  Methods: 77.78% (7/9)  
  Lines:   78.95% (15/19)

App\MockSample
  Methods:  60.00% ( 3/ 5)   Lines:  60.00% (  6/ 10)
App\NewSample
  Methods: 100.00% ( 1/ 1)   Lines: 100.00% (  1/  1)
App\Sample
  Methods: 100.00% ( 3/ 3)   Lines: 100.00% (  8/  8)
